(module OKL-T_6-W12N-C (layer F.Cu) (tedit 5E059131)
  (descr OKL-T/3-W5)
  (tags "Undefined or Miscellaneous")
  (attr smd)
  (fp_text reference U** (at -6.095 -6.095) (layer F.SilkS)
    (effects (font (size 1.27 1.27) (thickness 0.254)))
  )
  (fp_text value OKL-T/6-W12N (at -6.095 1.27) (layer F.SilkS) hide
    (effects (font (size 1.27 1.27) (thickness 0.254)))
  )
  (fp_line (start -12.19 0) (end -12.19 -12.19) (layer F.SilkS) (width 0.1))
  (fp_line (start 0 0) (end -12.19 0) (layer F.SilkS) (width 0.1))
  (fp_line (start 0 -12.19) (end 0 0) (layer F.SilkS) (width 0.1))
  (fp_line (start -12.19 -12.19) (end 0 -12.19) (layer F.SilkS) (width 0.1))
  (fp_line (start -12.19 -12.19) (end -12.19 0) (layer Dwgs.User) (width 0.2))
  (fp_line (start 0 -12.19) (end -12.19 -12.19) (layer Dwgs.User) (width 0.2))
  (fp_line (start 0 0) (end 0 -12.19) (layer Dwgs.User) (width 0.2))
  (fp_line (start -12.19 0) (end 0 0) (layer Dwgs.User) (width 0.2))
  (pad 12 smd rect (at -3.81 -1.52 90) (size 1.27 1.27) (layers F.Cu F.Paste F.Mask))
  (pad 11 smd rect (at -1.52 -3.81 90) (size 1.27 1.27) (layers F.Cu F.Paste F.Mask))
  (pad 10 smd rect (at -10.67 -3.81 90) (size 1.27 1.27) (layers F.Cu F.Paste F.Mask))
  (pad 9 smd rect (at -10.67 -1.52 90) (size 1.27 1.27) (layers F.Cu F.Paste F.Mask))
  (pad 8 smd rect (at -8.38 -1.52 90) (size 1.27 1.27) (layers F.Cu F.Paste F.Mask))
  (pad 7 smd rect (at -6.09 -1.52 90) (size 1.27 1.27) (layers F.Cu F.Paste F.Mask))
  (pad 6 smd rect (at -1.52 -1.52 90) (size 1.27 1.27) (layers F.Cu F.Paste F.Mask))
  (pad 5 smd rect (at -1.52 -6.1 90) (size 1.27 1.27) (layers F.Cu F.Paste F.Mask))
  (pad 4 smd rect (at -1.52 -9.53) (size 2.03 4.32) (layers F.Cu F.Paste F.Mask))
  (pad 3 smd rect (at -4.95 -10.67 90) (size 2.03 4.32) (layers F.Cu F.Paste F.Mask))
  (pad 2 smd rect (at -9.53 -10.67 90) (size 2.03 4.32) (layers F.Cu F.Paste F.Mask))
  (pad 1 smd rect (at -10.67 -6.1 90) (size 1.27 1.27) (layers F.Cu F.Paste F.Mask))
  (model ${KIKAIKEN_DIR}/DCDC.pretty/mps_dcdc_okl_t6_a.step
    (offset (xyz -6.096 6.096 0))
    (scale (xyz 1 1 1))
    (rotate (xyz 90 0 0))
  )
)
