(module OKL-T_6-W12_Handsold (layer F.Cu) (tedit 5E0591B4)
  (attr smd)
  (fp_text reference U3 (at 0 0.5) (layer F.SilkS)
    (effects (font (size 1 1) (thickness 0.15)))
  )
  (fp_text value OKL-T_6-W12_Handsold (at 0 8.5) (layer F.SilkS)
    (effects (font (size 1 1) (thickness 0.15)))
  )
  (fp_line (start 6.1 -6.1) (end 6.1 -5.5) (layer F.SilkS) (width 0.2))
  (fp_line (start -6.1 -6.1) (end -3.5 -6.1) (layer F.SilkS) (width 0.2))
  (fp_line (start -6.1 -5.5) (end -6.1 -6.1) (layer F.SilkS) (width 0.2))
  (fp_line (start -3.5 6.1) (end -6.1 6.1) (layer F.SilkS) (width 0.2))
  (fp_line (start 6.1 -6.1) (end 3.5 -6.1) (layer F.SilkS) (width 0.2))
  (fp_line (start -6.1 6.1) (end -6.1 5.5) (layer F.SilkS) (width 0.2))
  (fp_line (start -6.1 -3.5) (end -6.1 -1) (layer F.SilkS) (width 0.2))
  (fp_line (start 6.1 -3.5) (end 6.1 -1) (layer F.SilkS) (width 0.2))
  (fp_line (start 6.1 6.1) (end 6.1 5.5) (layer F.SilkS) (width 0.2))
  (fp_line (start 3.5 6.1) (end 6.1 6.1) (layer F.SilkS) (width 0.2))
  (pad 2 smd rect (at -5.6 -4.58) (size 3 1.2) (layers F.Cu F.Paste F.Mask))
  (pad 2 smd rect (at -2.29 -5.6 90) (size 3 1.2) (layers F.Cu F.Paste F.Mask))
  (pad 3 smd rect (at 0 -5.6 90) (size 3 1.2) (layers F.Cu F.Paste F.Mask))
  (pad 3 smd rect (at 2.29 -5.6 90) (size 3 1.2) (layers F.Cu F.Paste F.Mask))
  (pad 2 smd rect (at -3.435 -4.58) (size 4.07 1.77) (layers F.Cu F.Paste F.Mask))
  (pad 3 smd rect (at 1.145 -4.58) (size 4.07 1.77) (layers F.Cu F.Paste F.Mask))
  (pad 4 smd rect (at 4.585 -3.435) (size 1.77 4.07) (layers F.Cu F.Paste F.Mask))
  (pad ~ smd rect (at 6.35 2.29) (size 1.5 1.2) (layers F.Cu F.Paste F.Mask))
  (pad 11 smd rect (at 4.7 2.29) (size 1.2 1.2) (layers F.Cu F.Paste F.Mask))
  (pad 4 smd rect (at 5.6 -4.58) (size 3 1.2) (layers F.Cu F.Paste F.Mask))
  (pad 5 smd rect (at 5.6 0) (size 3 1.2) (layers F.Cu F.Paste F.Mask))
  (pad 6 smd rect (at 5.6 4.58) (size 3 1.2) (layers F.Cu F.Paste F.Mask))
  (pad 12 smd rect (at 2.29 5.6 90) (size 3 1.2) (layers F.Cu F.Paste F.Mask))
  (pad 7 smd rect (at 0 5.6 90) (size 3 1.2) (layers F.Cu F.Paste F.Mask))
  (pad 8 smd rect (at -2.29 5.6 90) (size 3 1.2) (layers F.Cu F.Paste F.Mask))
  (pad 9 smd rect (at -5.6 4.58) (size 3 1.2) (layers F.Cu F.Paste F.Mask))
  (pad 10 smd rect (at -5.6 2.29) (size 3 1.2) (layers F.Cu F.Paste F.Mask))
  (pad 1 smd rect (at -5.6 0) (size 3 1.2) (layers F.Cu F.Paste F.Mask))
  (model ${KIKAIKEN_DIR}/DCDC.pretty/mps_dcdc_okl_t6_a.step
    (at (xyz 0 0 0))
    (scale (xyz 1 1 1))
    (rotate (xyz 90 0 0))
  )
)
