(module JST_XA_B04B-XASK-1_1x04_P2.50mm_Vertical (layer F.Cu) (tedit 5E0A11DF)
  (descr "JST XH series connector, B2B-XH-A (http://www.jst-mfg.com/product/pdf/eng/eXH.pdf), generated with kicad-footprint-generator")
  (tags "connector JST XH vertical")
  (fp_text reference J9 (at 1.25 -4.1) (layer F.SilkS)
    (effects (font (size 1 1) (thickness 0.15)))
  )
  (fp_text value uart2 (at 1.25 4.6) (layer F.Fab)
    (effects (font (size 1 1) (thickness 0.15)))
  )
  (fp_line (start 8.25 -2.2) (end 8.25 -1.7) (layer F.SilkS) (width 0.12))
  (fp_line (start 8.6 -1.7) (end 8.25 -1.7) (layer F.SilkS) (width 0.12))
  (fp_line (start 7.05 -2.2) (end 7.05 -1.7) (layer F.SilkS) (width 0.12))
  (fp_line (start 8.25 -2.2) (end 7.05 -2.2) (layer F.SilkS) (width 0.12))
  (fp_line (start 8.6 -2.61) (end 8.6 -1.7) (layer F.SilkS) (width 0.12))
  (fp_line (start 8.6 -2.61) (end 9.3 -2.61) (layer F.SilkS) (width 0.12))
  (fp_line (start 0.45 -2.2) (end 0.45 -1.7) (layer F.SilkS) (width 0.12))
  (fp_line (start -0.75 -2.2) (end 0.45 -2.2) (layer F.SilkS) (width 0.12))
  (fp_line (start -1.1 -1.7) (end -0.75 -1.7) (layer F.SilkS) (width 0.12))
  (fp_line (start -0.75 -2.2) (end -0.75 -1.7) (layer F.SilkS) (width 0.12))
  (fp_line (start -2.45 -3.15) (end -2.45 3.15) (layer F.Fab) (width 0.1))
  (fp_line (start -2.45 3.15) (end 9.95 3.15) (layer F.Fab) (width 0.1))
  (fp_line (start 9.95 3.15) (end 9.95 -3.15) (layer F.Fab) (width 0.1))
  (fp_line (start 9.95 -3.15) (end -2.45 -3.15) (layer F.Fab) (width 0.1))
  (fp_line (start -2.56 -3.26) (end -2.56 3.26) (layer F.SilkS) (width 0.12))
  (fp_line (start -2.56 3.26) (end 10.06 3.26) (layer F.SilkS) (width 0.12))
  (fp_line (start 10.06 3.26) (end 10.06 -3.26) (layer F.SilkS) (width 0.12))
  (fp_line (start 10.06 -3.26) (end -2.56 -3.26) (layer F.SilkS) (width 0.12))
  (fp_line (start -2.95 -4.1) (end -2.95 3.65) (layer F.CrtYd) (width 0.05))
  (fp_line (start -2.95 3.65) (end 10.45 3.65) (layer F.CrtYd) (width 0.05))
  (fp_line (start 10.45 3.65) (end 10.45 -4.1) (layer F.CrtYd) (width 0.05))
  (fp_line (start 10.45 -4.1) (end -2.95 -4.1) (layer F.CrtYd) (width 0.05))
  (fp_line (start -0.625 -3.15) (end 0 -2.15) (layer F.Fab) (width 0.1))
  (fp_line (start 0 -2.15) (end 0.625 -3.15) (layer F.Fab) (width 0.1))
  (fp_line (start -1.6 -3.5) (end -2.85 -3.5) (layer F.SilkS) (width 0.12))
  (fp_line (start -2.85 -3.5) (end -2.85 -2.25) (layer F.SilkS) (width 0.12))
  (fp_text user %R (at 1.25 2.7) (layer F.Fab)
    (effects (font (size 1 1) (thickness 0.15)))
  )
  (fp_line (start -1.8 2.5) (end 9.3 2.5) (layer F.SilkS) (width 0.12))
  (fp_line (start 9.3 2.5) (end 9.3 -2.61) (layer F.SilkS) (width 0.12))
  (fp_line (start -1.8 -2.61) (end -1.8 2.5) (layer F.SilkS) (width 0.12))
  (fp_line (start -1.1 -2.61) (end -1.8 -2.61) (layer F.SilkS) (width 0.12))
  (fp_line (start 6.5 -2.1) (end 6.5 -3.26) (layer F.SilkS) (width 0.12))
  (fp_line (start 1 -3.26) (end 1 -2.1) (layer F.SilkS) (width 0.12))
  (fp_line (start 6.5 -2.1) (end 1 -2.1) (layer F.SilkS) (width 0.12))
  (fp_line (start -1.1 -2.61) (end -1.1 -1.7) (layer F.SilkS) (width 0.12))
  (fp_line (start 7.05 -1.7) (end 0.45 -1.7) (layer F.SilkS) (width 0.12))
  (fp_line (start 4.5 -2.1) (end 4.5 -2.8) (layer F.SilkS) (width 0.12))
  (fp_line (start 3 -2.1) (end 3 -2.8) (layer F.SilkS) (width 0.12))
  (fp_line (start 4.5 -2.8) (end 3 -2.8) (layer F.SilkS) (width 0.12))
  (pad 1 thru_hole roundrect (at 0 0) (size 1.7 2) (drill 1) (layers *.Cu *.Mask) (roundrect_rratio 0.147059))
  (pad 2 thru_hole oval (at 2.5 0) (size 1.7 2) (drill 1) (layers *.Cu *.Mask))
  (pad 4 thru_hole oval (at 7.5 0) (size 1.7 2) (drill 1) (layers *.Cu *.Mask))
  (pad 3 thru_hole oval (at 5 0) (size 1.7 2) (drill 1) (layers *.Cu *.Mask))
  (model ${KIKAIKEN_DIR}/3dpackage/Connector_JST_XA/B04B-XASK-1.STEP
    (offset (xyz 3.556 0 0))
    (scale (xyz 1 1 1))
    (rotate (xyz -90 0 180))
  )
)
