(module JST_XA_S02B-XASK-1_1x02_P2.50mm_Horizontal (layer F.Cu) (tedit 5E0A0598)
  (descr "JST XH series connector, S2B-XH-A-1 (http://www.jst-mfg.com/product/pdf/eng/eXH.pdf), generated with kicad-footprint-generator")
  (tags "connector JST XH horizontal")
  (fp_text reference REF** (at 1.25 -5.1) (layer F.SilkS)
    (effects (font (size 1 1) (thickness 0.15)))
  )
  (fp_text value JST_XA_S02B-XASK-1_1x02_P2.50mm_Horizontal (at 1.25 10.35) (layer F.Fab)
    (effects (font (size 1 1) (thickness 0.15)))
  )
  (fp_line (start -2.95 -3.85) (end -2.95 9.65) (layer F.CrtYd) (width 0.05))
  (fp_line (start -2.95 9.65) (end 5.45 9.65) (layer F.CrtYd) (width 0.05))
  (fp_line (start 5.45 9.65) (end 5.45 -3.85) (layer F.CrtYd) (width 0.05))
  (fp_line (start 5.45 -3.85) (end -2.95 -3.85) (layer F.CrtYd) (width 0.05))
  (fp_line (start 5.06 9.26) (end -2.56 9.26) (layer F.SilkS) (width 0.12))
  (fp_line (start -2.56 9.26) (end -2.56 -3.46) (layer F.SilkS) (width 0.12))
  (fp_line (start -2.56 -3.46) (end -1.44 -3.46) (layer F.SilkS) (width 0.12))
  (fp_line (start -1.44 -3.46) (end -1.44 0.24) (layer F.SilkS) (width 0.12))
  (fp_line (start 5.06 9.26) (end 5.06 -3.46) (layer F.SilkS) (width 0.12))
  (fp_line (start 5.06 -3.46) (end 3.94 -3.46) (layer F.SilkS) (width 0.12))
  (fp_line (start 3.94 -3.46) (end 3.94 0.24) (layer F.SilkS) (width 0.12))
  (fp_line (start 4.95 9.15) (end -2.45 9.15) (layer F.Fab) (width 0.1))
  (fp_line (start -2.45 9.15) (end -2.45 -3.35) (layer F.Fab) (width 0.1))
  (fp_line (start -2.45 -3.35) (end -1.55 -3.35) (layer F.Fab) (width 0.1))
  (fp_line (start -1.55 -3.35) (end -1.55 0.35) (layer F.Fab) (width 0.1))
  (fp_line (start -1.55 0.35) (end 4.05 0.35) (layer F.Fab) (width 0.1))
  (fp_line (start 4.95 9.15) (end 4.95 -3.35) (layer F.Fab) (width 0.1))
  (fp_line (start 4.95 -3.35) (end 4.05 -3.35) (layer F.Fab) (width 0.1))
  (fp_line (start 4.05 -3.35) (end 4.05 0.35) (layer F.Fab) (width 0.1))
  (fp_line (start -0.25 1.6) (end -0.25 5.5) (layer F.SilkS) (width 0.12))
  (fp_line (start -0.25 5.5) (end -0.21 5.5) (layer F.SilkS) (width 0.12))
  (fp_line (start 0.25 5.17) (end 0.25 1.6) (layer F.SilkS) (width 0.12))
  (fp_line (start 0.25 1.6) (end -0.25 1.6) (layer F.SilkS) (width 0.12))
  (fp_line (start 2.25 1.6) (end 2.25 5.17) (layer F.SilkS) (width 0.12))
  (fp_line (start 2.71 5.5) (end 2.75 5.5) (layer F.SilkS) (width 0.12))
  (fp_line (start 2.75 5.5) (end 2.75 1.6) (layer F.SilkS) (width 0.12))
  (fp_line (start 2.75 1.6) (end 2.25 1.6) (layer F.SilkS) (width 0.12))
  (fp_line (start 0 -1.5) (end -0.3 -2.1) (layer F.SilkS) (width 0.12))
  (fp_line (start -0.3 -2.1) (end 0.3 -2.1) (layer F.SilkS) (width 0.12))
  (fp_line (start 0.3 -2.1) (end 0 -1.5) (layer F.SilkS) (width 0.12))
  (fp_line (start -0.625 0.6) (end 0 -0.4) (layer F.Fab) (width 0.1))
  (fp_line (start 0 -0.4) (end 0.625 0.6) (layer F.Fab) (width 0.1))
  (fp_text user %R (at 1.25 1.85) (layer F.Fab)
    (effects (font (size 1 1) (thickness 0.15)))
  )
  (pad 1 thru_hole roundrect (at 0 0) (size 1.7 2) (drill 1) (layers *.Cu *.Mask) (roundrect_rratio 0.147059))
  (pad 2 thru_hole oval (at 2.5 0) (size 1.7 2) (drill 1) (layers *.Cu *.Mask))
  (pad "" np_thru_hole roundrect (at 1.25 6.5) (size 2.8 2) (drill oval 2.8 2) (layers *.Cu *.Mask) (roundrect_rratio 0.5))
  (model ${KIKAIKEN_DIR}/3dpackage/Connector_JST_XA/S02B-XASS-1.STEP
    (offset (xyz 1.25 -4.9 0))
    (scale (xyz 1 1 1))
    (rotate (xyz 0 0 180))
  )
)
