(module 2MS1-T1-B4-VS2-Q-E-S (layer F.Cu) (tedit 6065E2C6)
  (tags "switch toggle")
  (fp_text reference REF** (at 0 -3.556) (layer F.SilkS)
    (effects (font (size 1 1) (thickness 0.15)))
  )
  (fp_text value 2MS1-T1-B4-VS4-Q-E-S (at 0 3.302) (layer F.SilkS)
    (effects (font (size 0.45 0.45) (thickness 0.1125)))
  )
  (fp_line (start -4.08 -2.54) (end -5.08 -1.54) (layer F.Fab) (width 0.15))
  (fp_line (start -5.08 -1.54) (end -5.08 2.54) (layer F.Fab) (width 0.15))
  (fp_line (start -5.08 2.54) (end 5.08 2.54) (layer F.Fab) (width 0.15))
  (fp_line (start 5.08 2.54) (end 5.08 -2.54) (layer F.Fab) (width 0.15))
  (fp_line (start 5.08 -2.54) (end -4.08 -2.54) (layer F.Fab) (width 0.15))
  (fp_line (start 2.0192 -2.69) (end 5.2092 -2.69) (layer F.SilkS) (width 0.15))
  (fp_line (start 5.2219 -2.69) (end 5.2219 -1.42) (layer F.SilkS) (width 0.15))
  (fp_line (start 2.0192 -2.69) (end 5.2092 -2.69) (layer F.SilkS) (width 0.15))
  (fp_line (start 5.2219 -2.69) (end 5.2219 -1.42) (layer F.SilkS) (width 0.15))
  (fp_line (start 2.0424 2.6924) (end 5.2324 2.6924) (layer F.SilkS) (width 0.15))
  (fp_line (start 5.2219 2.69) (end 5.2219 1.42) (layer F.SilkS) (width 0.15))
  (fp_line (start 2.0192 -2.69) (end 5.2092 -2.69) (layer F.SilkS) (width 0.15))
  (fp_line (start 5.2219 -2.69) (end 5.2219 -1.42) (layer F.SilkS) (width 0.15))
  (fp_line (start -2.04 2.69) (end -5.23 2.69) (layer F.SilkS) (width 0.15))
  (fp_line (start -5.23 2.69) (end -5.23 1.42) (layer F.SilkS) (width 0.15))
  (fp_line (start -1.77 -2.69) (end -4.12 -2.69) (layer F.SilkS) (width 0.15))
  (fp_line (start -4.12 -2.69) (end -5.23 -1.6) (layer F.SilkS) (width 0.15))
  (fp_line (start -5.23 -1.54) (end -5.23 -1.42) (layer F.SilkS) (width 0.15))
  (fp_circle (center -5.13 -2.54) (end -5.13 -2.44) (layer F.SilkS) (width 0.2))
  (fp_line (start -5.38 -2.8) (end 5.334 -2.794) (layer F.CrtYd) (width 0.05))
  (fp_line (start 5.334 -2.794) (end 5.334 2.806) (layer F.CrtYd) (width 0.05))
  (fp_line (start 5.334 2.8194) (end -5.38 2.8) (layer F.CrtYd) (width 0.05))
  (fp_line (start -5.38 2.8) (end -5.38 -2.8) (layer F.CrtYd) (width 0.05))
  (pad "" thru_hole circle (at -5.08 0) (size 1.5 1.5) (drill 1) (layers *.Cu *.Mask))
  (pad 1 thru_hole circle (at -2.54 0) (size 1.5 1.5) (drill 1) (layers *.Cu *.Mask))
  (pad 2 thru_hole circle (at 0 0) (size 1.5 1.5) (drill 1) (layers *.Cu *.Mask))
  (pad 3 thru_hole circle (at 2.54 0) (size 1.5 1.5) (drill 1) (layers *.Cu *.Mask))
  (pad "" thru_hole circle (at 5.08 0) (size 1.5 1.5) (drill 1) (layers *.Cu *.Mask))
  (model ${KIKAIKEN_DIR}/3dpackage/Switch/2MS1-T1-B4-VS2-Q-E.wrl
    (at (xyz 0 0 0))
    (scale (xyz 0.3937 0.3937 0.3937))
    (rotate (xyz 0 0 0))
  )
)
