(module 42J02GB (layer F.Cu) (tedit 6065E501)
  (descr 42J02GB-1)
  (tags Switch)
  (fp_text reference REF** (at -3.81 -2.54) (layer F.SilkS)
    (effects (font (size 1.27 1.27) (thickness 0.254)))
  )
  (fp_text value CANID (at -3.8 3.36) (layer F.SilkS)
    (effects (font (size 1.27 1.27) (thickness 0.254)))
  )
  (fp_line (start -8.71 -7.44) (end 1.09 -7.44) (layer F.Fab) (width 0.2))
  (fp_line (start 1.09 -7.44) (end 1.09 2.36) (layer F.Fab) (width 0.2))
  (fp_line (start 1.09 2.36) (end -8.71 2.36) (layer F.Fab) (width 0.2))
  (fp_line (start -8.71 2.36) (end -8.71 -7.44) (layer F.Fab) (width 0.2))
  (fp_line (start -8.71 -7.44) (end 1.09 -7.44) (layer F.SilkS) (width 0.1))
  (fp_line (start 1.09 -7.44) (end 1.09 2.36) (layer F.SilkS) (width 0.1))
  (fp_line (start 1.09 2.36) (end -8.71 2.36) (layer F.SilkS) (width 0.1))
  (fp_line (start -8.71 2.36) (end -8.71 -7.44) (layer F.SilkS) (width 0.1))
  (fp_line (start -9.71 -8.44) (end 2.09 -8.44) (layer F.CrtYd) (width 0.1))
  (fp_line (start 2.09 -8.44) (end 2.09 3.36) (layer F.CrtYd) (width 0.1))
  (fp_line (start 2.09 3.36) (end -9.71 3.36) (layer F.CrtYd) (width 0.1))
  (fp_line (start -9.71 3.36) (end -9.71 -8.44) (layer F.CrtYd) (width 0.1))
  (fp_line (start 1.6 -0.1) (end 1.6 -0.1) (layer F.SilkS) (width 0.2))
  (fp_line (start 1.6 0.1) (end 1.6 0.1) (layer F.SilkS) (width 0.2))
  (fp_arc (start 1.6 0) (end 1.6 -0.1) (angle -180) (layer F.SilkS) (width 0.2))
  (fp_arc (start 1.6 0) (end 1.6 0.1) (angle -180) (layer F.SilkS) (width 0.2))
  (pad 1 thru_hole circle (at 0 0) (size 1.397 1.397) (drill 0.86) (layers *.Cu *.Mask))
  (pad 2 thru_hole circle (at 0 -5.08) (size 1.397 1.397) (drill 0.86) (layers *.Cu *.Mask))
  (pad 4 thru_hole circle (at -7.62 0) (size 1.397 1.397) (drill 0.86) (layers *.Cu *.Mask))
  (pad C thru_hole circle (at -7.62 -2.54) (size 1.397 1.397) (drill 0.86) (layers *.Cu *.Mask))
  (pad 8 thru_hole circle (at -7.62 -5.08) (size 1.397 1.397) (drill 0.86) (layers *.Cu *.Mask))
  (model ${KIKAIKEN_DIR}/3dpackage/Switch/A6A_10RF.step
    (offset (xyz -7.62 2.54 0))
    (scale (xyz 1 1 1))
    (rotate (xyz -90 0 0))
  )
)
