(module SOIC127P700X210-4N (layer F.Cu) (tedit 5E05927D)
  (descr PS2801C-1)
  (tags "Undefined or Miscellaneous")
  (attr smd)
  (fp_text reference U** (at 0 0) (layer F.SilkS)
    (effects (font (size 1.27 1.27) (thickness 0.254)))
  )
  (fp_text value SOIC127P700X210-4N (at 0 0) (layer F.SilkS) hide
    (effects (font (size 1.27 1.27) (thickness 0.254)))
  )
  (fp_line (start -4.275 -1.75) (end 4.275 -1.75) (layer Dwgs.User) (width 0.05))
  (fp_line (start 4.275 -1.75) (end 4.275 1.75) (layer Dwgs.User) (width 0.05))
  (fp_line (start 4.275 1.75) (end -4.275 1.75) (layer Dwgs.User) (width 0.05))
  (fp_line (start -4.275 1.75) (end -4.275 -1.75) (layer Dwgs.User) (width 0.05))
  (fp_line (start -2.2 -1.35) (end 2.2 -1.35) (layer Dwgs.User) (width 0.1))
  (fp_line (start 2.2 -1.35) (end 2.2 1.35) (layer Dwgs.User) (width 0.1))
  (fp_line (start 2.2 1.35) (end -2.2 1.35) (layer Dwgs.User) (width 0.1))
  (fp_line (start -2.2 1.35) (end -2.2 -1.35) (layer Dwgs.User) (width 0.1))
  (fp_line (start -2.2 -0.08) (end -0.93 -1.35) (layer Dwgs.User) (width 0.1))
  (fp_line (start -2.025 -1.35) (end 2.025 -1.35) (layer F.SilkS) (width 0.2))
  (fp_line (start 2.025 -1.35) (end 2.025 1.35) (layer F.SilkS) (width 0.2))
  (fp_line (start 2.025 1.35) (end -2.025 1.35) (layer F.SilkS) (width 0.2))
  (fp_line (start -2.025 1.35) (end -2.025 -1.35) (layer F.SilkS) (width 0.2))
  (fp_line (start -4.025 -1.31) (end -2.375 -1.31) (layer F.SilkS) (width 0.2))
  (pad 1 smd rect (at -3.2 -0.635 90) (size 0.65 1.65) (layers F.Cu F.Paste F.Mask))
  (pad 2 smd rect (at -3.2 0.635 90) (size 0.65 1.65) (layers F.Cu F.Paste F.Mask))
  (pad 3 smd rect (at 3.2 0.635 90) (size 0.65 1.65) (layers F.Cu F.Paste F.Mask))
  (pad 4 smd rect (at 3.2 -0.635 90) (size 0.65 1.65) (layers F.Cu F.Paste F.Mask))
  (model ${KIKAIKEN_DIR}/SMDPackage_IC.pretty/PS2801C-1-F3-A.stp
    (at (xyz 0 0 0))
    (scale (xyz 1 1 1))
    (rotate (xyz 0 0 0))
  )
)
