(module VNH5019A-E_1 (layer F.Cu) (tedit 5E0592BA)
  (descr VNH5019A-E_1)
  (tags "Integrated Circuit")
  (attr smd)
  (fp_text reference IC2 (at 10.064 0.588 90) (layer F.SilkS)
    (effects (font (size 1.27 1.27) (thickness 0.254)))
  )
  (fp_text value VNH5019A-E (at -10.002 1.096 90) (layer F.SilkS) hide
    (effects (font (size 1.27 1.27) (thickness 0.254)))
  )
  (fp_line (start -8.6 -7) (end 8.6 -7) (layer F.SilkS) (width 0.2))
  (fp_line (start 8.6 -7) (end 8.6 9) (layer F.SilkS) (width 0.2))
  (fp_line (start 8.6 9) (end -8.6 9) (layer F.SilkS) (width 0.2))
  (fp_line (start -8.6 9) (end -8.6 -7) (layer F.SilkS) (width 0.2))
  (fp_line (start -8.6 -7) (end 8.6 -7) (layer Dwgs.User) (width 0.2))
  (fp_line (start 8.6 -7) (end 8.6 9) (layer Dwgs.User) (width 0.2))
  (fp_line (start 8.6 9) (end -8.6 9) (layer Dwgs.User) (width 0.2))
  (fp_line (start -8.6 9) (end -8.6 -7) (layer Dwgs.User) (width 0.2))
  (fp_circle (center -8.89867 10.61767) (end -9.1749 10.61767) (layer F.SilkS) (width 0.254))
  (pad 1 smd rect (at -7 10.25) (size 0.68 1.5) (layers F.Cu F.Paste F.Mask))
  (pad 2 smd rect (at -6 10.25) (size 0.68 1.5) (layers F.Cu F.Paste F.Mask))
  (pad 3 smd rect (at -5 10.25) (size 0.68 1.5) (layers F.Cu F.Paste F.Mask))
  (pad 4 smd rect (at -4 10.25) (size 0.68 1.5) (layers F.Cu F.Paste F.Mask))
  (pad 5 smd rect (at -3 10.25) (size 0.68 1.5) (layers F.Cu F.Paste F.Mask))
  (pad 6 smd rect (at -2 10.25) (size 0.68 1.5) (layers F.Cu F.Paste F.Mask))
  (pad 7 smd rect (at -1 10.25) (size 0.68 1.5) (layers F.Cu F.Paste F.Mask))
  (pad 8 smd rect (at 0 10.25) (size 0.68 1.5) (layers F.Cu F.Paste F.Mask))
  (pad 9 smd rect (at 1 10.25) (size 0.68 1.5) (layers F.Cu F.Paste F.Mask))
  (pad 10 smd rect (at 2 10.25) (size 0.68 1.5) (layers F.Cu F.Paste F.Mask))
  (pad 11 smd rect (at 3 10.25) (size 0.68 1.5) (layers F.Cu F.Paste F.Mask))
  (pad 12 smd rect (at 4 10.25) (size 0.68 1.5) (layers F.Cu F.Paste F.Mask))
  (pad 13 smd rect (at 5 10.25) (size 0.68 1.5) (layers F.Cu F.Paste F.Mask))
  (pad 14 smd rect (at 6 10.25) (size 0.68 1.5) (layers F.Cu F.Paste F.Mask))
  (pad 15 smd rect (at 7 10.25) (size 0.68 1.5) (layers F.Cu F.Paste F.Mask))
  (pad 16 smd rect (at 7 -8.25) (size 0.68 1.5) (layers F.Cu F.Paste F.Mask))
  (pad 17 smd rect (at 6 -8.25) (size 0.68 1.5) (layers F.Cu F.Paste F.Mask))
  (pad 18 smd rect (at 5 -8.25) (size 0.68 1.5) (layers F.Cu F.Paste F.Mask))
  (pad 19 smd rect (at 4 -8.25) (size 0.68 1.5) (layers F.Cu F.Paste F.Mask))
  (pad 20 smd rect (at 3 -8.25) (size 0.68 1.5) (layers F.Cu F.Paste F.Mask))
  (pad 21 smd rect (at 2 -8.25) (size 0.68 1.5) (layers F.Cu F.Paste F.Mask))
  (pad 22 smd rect (at 1 -8.25) (size 0.68 1.5) (layers F.Cu F.Paste F.Mask))
  (pad 23 smd rect (at 0 -8.25) (size 0.68 1.5) (layers F.Cu F.Paste F.Mask))
  (pad 24 smd rect (at -1 -8.25) (size 0.68 1.5) (layers F.Cu F.Paste F.Mask))
  (pad 25 smd rect (at -2 -8.25) (size 0.68 1.5) (layers F.Cu F.Paste F.Mask))
  (pad 26 smd rect (at -3 -8.25) (size 0.68 1.5) (layers F.Cu F.Paste F.Mask))
  (pad 27 smd rect (at -4 -8.25) (size 0.68 1.5) (layers F.Cu F.Paste F.Mask))
  (pad 28 smd rect (at -5 -8.25) (size 0.68 1.5) (layers F.Cu F.Paste F.Mask))
  (pad 29 smd rect (at -6 -8.25) (size 0.68 1.5) (layers F.Cu F.Paste F.Mask))
  (pad 30 smd rect (at -7 -8.25) (size 0.68 1.5) (layers F.Cu F.Paste F.Mask))
  (pad 31 smd rect (at -4.165 -2.05 90) (size 5.25 6.23) (layers F.Cu F.Paste F.Mask))
  (pad 32 smd rect (at 4.165 -2.05 90) (size 5.25 6.23) (layers F.Cu F.Paste F.Mask))
  (pad 33 smd rect (at 0 4.05 90) (size 5.25 10.3) (layers F.Cu F.Paste F.Mask))
  (model ${KIKAIKEN_DIR}/SMDPackage_IC.pretty/VNH5019ATR-E.stp
    (offset (xyz 0 -1.016 0))
    (scale (xyz 1 1 1))
    (rotate (xyz 0 0 -90))
  )
)
